{
	"Items": [
	{
		"id":"T_B2",
		"character":"數字",
		"stroke":1,
		"path":"number"
	},
	{
		"id":"T_H2",
		"character":"方向",
		"stroke":3,
		"path":"direction"
	},
	{
		"id":"T_N3",
		"character":"人體",
		"stroke":3,
		"path":"human"
	},
	{
		"id":"T_F2",
		"character":"自然",
		"stroke":3,
		"path":"nature"
	},
	{
		"id":"T_Z11",
		"character":"雞蛋",
		"stroke":3,
		"path":"zodiac"
	}

]
}

