{
	"Items": [

	{"id":"T_Z3","character":"牛","stroke":3,"path":"zodiac"},
	{"id":"T_Z4","character":"虎","stroke":8,"path":"zodiac"},
	{"id":"T_Z11","character":"雞","stroke":18,"path":"zodiac","radical":"隹部","sim_id":"S_Z11"},
	{"id":"T_V9","character":"蛋","stroke":11,"path":"zodiac","radical":"虫部"}
	]
}
